…
Identifier les phrases

La deuxième étape consiste à identifier les “phrases” présentent dans les lignes. L’idée générale ici est qu’une phrase commence soit par un ou deux chiffres suivis par un point puis un espace (pour les intitulés des questions) soit par une lettre majuscule suivie d’une lettre minuscule ou d’un espace (pour les réponses possibles). Il faut également pouvoir identifier les phrases qui se retrouvent sur plusieurs lignes. La colonne sentences_group est crée en a) détectant chaque boîte de texte commençant une phrase à l’aide d’expressions régulières, b) en appliquant une somme cumulée sur le booléen ainsi obtenu afin que chaque ligne appartenant à la même phrase ait la même somme et c) en ajoutant le prefix sent à cette somme. Cette colonne permet de réunir les phrases présentes sur plusieurs lignes et de supprimer celles qui sont présentent plusieurs fois.

metapdf <- metapdf %>%
  mutate(sentences_group = str_detect(lines,"(^\\d{1,2}\\.\\s|^[:upper:]([:lower:]|\\s))") %>% 
           cumsum() %>% 
           paste0("sent", .)) %>%
  group_by(sentences_group) %>%
  mutate(sentences = str_c(lines, collapse = " ")) %>%
  distinct(sentences_group, .keep_all = TRUE) %>%
  ungroup()
select(metapdf, lines, sentences_group, sentences)
## # A tibble: 44 x 3
##    lines                     sentences_group sentences                     
##    <chr>                     <chr>           <chr>                         
##  1 Event Timing: January 4t~ sent1           Event Timing: January 4th-6th~
##  2 Event Address: 123 Your ~ sent2           Event Address: 123 Your Stree~
##  3 Contact us at (123) 456-~ sent3           Contact us at (123) 456-7890 ~
##  4 1. Name *                 sent4           1. Name *                     
##  5 2. Email *                sent5           2. Email *                    
##  6 3. Organization *         sent6           3. Organization *             
##  7 4. What days will you at~ sent7           4. What days will you attend?~
##  8 Check all that apply.     sent8           Check all that apply.         
##  9 Day 1                     sent9           Day 1                         
## 10 Day 2                     sent10          Day 2                         
## # ... with 34 more rows
…
